{
    "2": {
        "x": [
            -1.2864677654752605,
            -0.5123480702725249,
            -1.2460157696355394,
            0.5302521049502034,
            -0.7359494286835182,
            1.1169725638645092,
            0.41875962539775846
        ],
        "formants": [
            367.64985802389293,
            1679.0770157688466,
            2522.1752134165813,
            3628.072600388639
        ]
    },
    "9": {
        "x": [
            0.7824668341695238,
            0.9552070026092847,
            -2.524210006070159,
            -2.9893894229437588,
            1.2364040061455726,
            2.701785148538775,
            -0.8862423762571778
        ],
        "formants": [
            511.49881182051786,
            1471.5280549581676,
            2576.74748664743,
            3627.4692347220844
        ]
    },
    "@": {
        "x": [
            2.12852223576683,
            2.0296810823545295,
            -0.22440848652009787,
            3.0,
            2.3169114885292537,
            2.2436344451525847,
            2.097575759760128
        ],
        "formants": [
            305.6997672544123,
            1539.4825729961747,
            2245.633584661781,
            3588.0942247126395
        ]
    },
    "E": {
        "x": [
            -2.834100447931964,
            -1.0132729519099002,
            -1.8597612833560617,
            1.0506874535518465,
            1.0140649719077492,
            2.9913181259868074,
            2.970293570501715
        ],
        "formants": [
            512.2927418147215,
            2037.3635355436763,
            3017.0810078778986,
            4048.254315955446
        ]
    },
    "O": {
        "x": [
            0.1924823228635461,
            2.5246081537688925,
            -2.999999757222103,
            -2.9999962901583705,
            0.2524860723798382,
            1.9829588098827204,
            -1.4930159393817637
        ],
        "formants": [
            470.03443457666106,
            1089.207201435671,
            2418.766007937162,
            3683.6404739908057
        ]
    },
    "a": {
        "x": [
            0.5810660846131708,
            1.4183797945601895,
            -2.9999995889335986,
            -3.0,
            3.0,
            0.300192102455211,
            2.2857898510885786
        ],
        "formants": [
            665.4563931981627,
            1642.2910366811755,
            2883.1759324555123,
            3944.2329033776814
        ]
    },
    "e": {
        "x": [
            -2.946669071107288,
            -1.2358732275967461,
            1.8354575459765106,
            2.9556815786824084,
            1.845698314592227,
            -2.8482455484101337,
            2.2071340722879285
        ],
        "formants": [
            342.17217080501973,
            2371.6908395837654,
            3020.163996569583,
            3803.7107037115
        ]
    },
    "i": {
        "x": [
            0.7162364318214237,
            -1.9790350829237702,
            0.27058854122192266,
            -2.998308270196704,
            2.9443173185958975,
            -2.3877278784377745,
            1.4222509340105343
        ],
        "formants": [
            293.2689599293056,
            2325.1680727550474,
            3461.4178324482264,
            3918.9037870952393
        ]
    },
    "o": {
        "x": [
            2.1048898324424306,
            2.593161734048153,
            1.7219413867159938,
            0.6330037826361117,
            -0.08854872276103382,
            1.6059615578735063,
            2.9999984182000228
        ],
        "formants": [
            372.5895639811862,
            998.3501563065045,
            2441.469102985143,
            3814.941775611258
        ]
    },
    "u": {
        "x": [
            1.7109970029869692,
            2.0803586894038,
            2.096546401315453,
            -0.9031010989452515,
            -0.9411982025263015,
            -1.3859716821549375,
            2.9999997176753643
        ],
        "formants": [
            106.3093419028055,
            273.6905357094013,
            772.094182959517,
            2460.3766892625085
        ]
    },
    "y": {
        "x": [
            2.9850412386469447,
            0.09839147044897645,
            1.6344331114091597,
            -1.0434335281424774,
            2.1883864405487197,
            0.9789456577476161,
            1.9933608997369792
        ],
        "formants": [
            226.7572383225359,
            2413.8328738545906,
            2858.565809300386,
            3739.9584865925644
        ]
    }
}