{
    "gestures": [
        {
            "name": "b",
            "boundary": 0,
            "target": 0,
            "target_speech_ready": -0.004,
            "anatomy_vector": [
                2,
                0,
                0,
                -1,
                1
            ],
            "stiffness": 15,
            "occlusion": "true"
        },
        {
            "name": "d",
            "boundary": 0.003,
            "target": 0.003,
            "target_speech_ready": 0.005,
            "anatomy_vector": [
                -1,
                0.25,
                1,
                0,
                0
            ],
            "stiffness": 17.276,
            "occlusion": "true"
        },
        {
            "name": "a",
            "boundary": 0.015,
            "target": -0.009,
            "target_speech_ready": -0.0116,
            "anatomy_vector": [
                -0.6666666666666666,
                1,
                0,
                0,
                0
            ],
            "stiffness": 5,
            "occlusion": "false"
        },
        {
            "name": "i",
            "boundary": 0.015,
            "target": 0.009,
            "target_speech_ready": 0.0116,
            "anatomy_vector": [
                -0.6666666666666666,
                1,
                0,
                0,
                0
            ],
            "stiffness": 5,
            "occlusion": "false"
        }
    ],
    "articulators": [
        {
            "name": "jaw",
            "mass": 0.55,
            "stiffness": 1.5,
            "speech_ready_state": 0.009
        },
        {
            "name": "tongue_body",
            "mass": 0.25,
            "stiffness": 1.5,
            "speech_ready_state": 0.006
        },
        {
            "name": "tongue_tip",
            "mass": 0.05,
            "stiffness": 1.5,
            "speech_ready_state": -0.005
        },
        {
            "name": "upper_lip",
            "mass": 0.03,
            "stiffness": 1,
            "speech_ready_state": 0.001
        },
        {
            "name": "lower_lip",
            "mass": 0.03,
            "stiffness": 1,
            "speech_ready_state": -0.001
        }
    ]
}
